10 REM *
20 REM * PROG 8.8 -  Radial Lines
30 REM *
40 COLOR 15,1, 1
50 C=5
60 SCREEN 2
70 FOR Y = 40 TO 160 STEP 40
80 FOR X=40 TO 216 STEP 40
90 FOR EA = 0 TO 6.29 STEP .4188
100 CIRCLE(X,Y),19,C,0,-EA
110 NEXT EA
120 NEXT X
130 C=C+2
140 NEXT Y
150 GOTO 150
