10 REM *
20 REM * PROG 8.1 - PSET and PRESET
30 REM *
40 COLOR 15,1,1
50 SCREEN 2
60 REM *
70 REM * Plot White Points
80 REM *
90 FOR X = 16 TO 240 STEP 4
100 FOR Y = 16 TO 176 STEP 4
110 PSET(X,Y)
120 NEXT Y
130 NEXT X
140 REM *
150 REM * Erase Them Using PRESET
160 REM *
170 FOR Y = 176 TO 16 STEP -4
180 FOR X = 240 TO 16 STEP -4
190 PRESET (X, Y)
200 NEXT X
210 NEXT Y
220 REM *
230 REM * Maintain Graphics Mode
240 REM *
250 GOTO 250
