10 REM *
20 REM * PROG 9.4 - The Fifth Sprite Rule
30 REM *
40 COLOR 15,4,4
50 SCREEN 2,1
60 SPRITE$(0)=STRING$(8,255)
70 PUT SPRITE 1,(48,96),8,0
80 PUT SPRITE 2,(80,96),9,0
90 PUT SPRITE 4,(128,96),10,0
100 PUT SPRITE 5,(156,96),11,0
110 Y=16=SY=.5
120 PUT SPRITE 3,(104,Y),1,0
130 Y=Y+SY
140 IF Y<16 OR Y>176 THEN SY=-SY : PLAY "L24O5CO6C"
150 GOTO 120
