10 REM *
20 REM * PROG 7.5 SOUNDS TWO
30 REM *
40 PLAY "T120L2"
50 PLAY "S13M9000O3F+RGACD"
60 PLAY "S13M9000O3F+RGACO2A"
70 FOR I = 1 TO 4
80 PLAY "S1M1500L64O5F+RGACO4A"
90 PLAY "S11M900L64O3F+RGACO2A"
100 NEXT I
110 END
